[
  {
  "Phone" : "9922998224",
  "UID" : "ABC-0000asdsd-9922998230",
  "RSSI" : "-100",
  "total_contact" : 4,
  "Team" : "False",
  "Pause" : "True",
    "contact_name" : "Aditya Joshi"
  },
{
  "Phone" : "9922998224",
  "UID" : "ABC-0000asdsd-9922998230",
  "RSSI" : "-100",
  "total_contact" : 6,
  "Team" : "False",
  "Pause" : "True",
  "contact_name" : "Aditya Joshi"
},
  {
  "Phone" : "9922998224",
  "UID" : "ABC-0000asdsd-9922998230",
  "RSSI" : "-100",
  "total_contact" : 7,
  "Team" : "False",
  "Pause" : "False",
    "contact_name" : "Aditya Joshi"
  },
  {
  "Phone" : "9922998224",
  "UID" : "ABC-0000asdsd-9922998230",
  "RSSI" : "-100",
  "total_contact" : 8,
  "Team" : "False",
  "Pause" : "False",
    "contact_name" : "Aditya Joshi"
  },
  {
  "Phone" : "9922998224",
  "UID" : "ABC-0000asdsd-9922998230",
  "RSSI" : "-100",
  "total_contact" : 10,
  "Team" : "False",
  "Pause" : "True",
    "contact_name" : "Vatsal Joshi"
  },
  {
  "Phone" : "9922998224",
  "UID" : "ABC-0000asdsd-9922998230",
  "RSSI" : "-100",
  "total_contact" : 10,
  "Team" : "False",
  "Pause" : "True",
    "contact_name" : "Aditya Joshi"
  }]
  