[{
  "_id": {
    "$oid": "5ece45f1289c0149644b18e8"
  },
  "question": "Hello",
  "organisation": "Cyronics",
  "name": "Siddharth Bhonge",
  "phone": "9922998224",
  "timestamp": {
    "$date": "2020-05-27T09:20:25.448Z"
  },
  "attended_by": "",
  "attended_timestamp": "",
  "mode": "",
  "squash": ""
},{
  "_id": {
    "$oid": "5ece45f3289c0149644b18e9"
  },
  "question": "Hello",
  "organisation": "Cyronics",
  "name": "Siddharth Bhonge",
  "phone": "9922998224",
  "timestamp": {
    "$date": "2020-05-27T09:20:27.426Z"
  },
  "attended_by": "",
  "attended_timestamp": "",
  "mode": "",
  "squash": ""
},{
  "_id": {
    "$oid": "5ece4622289c014cc4d0a79b"
  },
  "question": "Hello",
  "organisation": "Cyronics",
  "name": "Siddharth Bhonge",
  "phone": "9922998224",
  "timestamp": {
    "$date": "2020-05-27T09:21:14.008Z"
  },
  "attended_by": "",
  "attended_timestamp": "",
  "mode": "",
  "squash": ""
},{
  "_id": {
    "$oid": "5ece467b289c0148387d8065"
  },
  "question": "Hello",
  "organisation": "Cyronics",
  "name": "Siddharth Bhonge",
  "phone": "9922998224",
  "timestamp": {
    "$date": "2020-05-27T09:22:43.654Z"
  },
  "attended_by": "",
  "attended_timestamp": "",
  "mode": "",
  "squash": ""
},{
  "_id": {
    "$oid": "5ece467d289c0148387d8066"
  },
  "question": "Hello",
  "organisation": "Cyronics",
  "name": "Siddharth Bhonge",
  "phone": "9922998224",
  "timestamp": {
    "$date": "2020-05-27T09:22:45.538Z"
  },
  "attended_by": "",
  "attended_timestamp": "",
  "mode": "",
  "squash": ""
}]